{
    "bootstrap": true,
    "server": true,
    "datacenter": "DATACENTER",
    "data_dir": "/var/consul",
    "encrypt": "ENCRYPTKEY",
    "ports": {
        "https": -1
    },
    "log_level": "INFO",
    "enable_syslog": true,
    "dns_config": {
        "service_ttl": {
            "*": "10s"
        }
    }
}